<?xml version="1.0" encoding="UTF-8"?>
<svg id="Layer_2" data-name="Layer 2" xmlns="http://www.w3.org/2000/svg" viewBox="0 0 164.75 124">
  <defs>
    <style>
      .cls-1 {
        font-family: MyriadPro-It, 'Myriad Pro';
        font-style: italic;
      }

      .cls-2 {
        font-family: MyriadPro-Regular, 'Myriad Pro';
      }

      .cls-3 {
        fill: #fff;
      }

      .cls-3, .cls-4 {
        stroke-linecap: round;
      }

      .cls-3, .cls-4, .cls-5 {
        stroke-miterlimit: 10;
        stroke-width: 2px;
      }

      .cls-3, .cls-5 {
        stroke: #231f20;
      }

      .cls-4 {
        stroke: #0d71ba;
      }

      .cls-4, .cls-5 {
        fill: none;
      }

      .cls-6 {
        font-size: 12px;
      }

      .cls-6, .cls-7 {
        fill: #231f20;
      }

      .cls-7 {
        stroke-width: 0px;
      }
    </style>
  </defs>
  <g id="Layer_2-2" data-name="Layer 2">
    <ellipse class="cls-3" cx="66" cy="106" rx="65" ry="17"/>
    <g>
      <line class="cls-4" x1="72.5" y1="104" x2="57.5" y2="104"/>
      <line class="cls-4" x1="65.5" y1="107" x2="50.5" y2="107"/>
      <line class="cls-4" x1="88.5" y1="107" x2="73.5" y2="107"/>
      <line class="cls-4" x1="77.5" y1="110" x2="62.5" y2="110"/>
      <line class="cls-4" x1="53.5" y1="103" x2="38.5" y2="103"/>
      <line class="cls-4" x1="55.5" y1="110" x2="40.5" y2="110"/>
      <line class="cls-4" x1="62.5" y1="113" x2="47.5" y2="113"/>
      <line class="cls-4" x1="48.5" y1="116" x2="33.5" y2="116"/>
      <line class="cls-4" x1="53.5" y1="119" x2="38.5" y2="119"/>
      <line class="cls-4" x1="71.5" y1="117" x2="56.5" y2="117"/>
      <line class="cls-4" x1="84.5" y1="114" x2="69.5" y2="114"/>
      <line class="cls-4" x1="95.5" y1="118" x2="80.5" y2="118"/>
      <line class="cls-4" x1="100.5" y1="111" x2="85.5" y2="111"/>
      <line class="cls-4" x1="111.5" y1="115" x2="96.5" y2="115"/>
      <line class="cls-4" x1="121.5" y1="110" x2="106.5" y2="110"/>
      <line class="cls-4" x1="109.5" y1="106" x2="94.5" y2="106"/>
      <line class="cls-4" x1="126.5" y1="104" x2="111.5" y2="104"/>
      <line class="cls-4" x1="118.5" y1="101" x2="103.5" y2="101"/>
      <line class="cls-4" x1="107.5" y1="96" x2="92.5" y2="96"/>
      <line class="cls-4" x1="93.5" y1="103" x2="78.5" y2="103"/>
      <line class="cls-4" x1="97.5" y1="99" x2="82.5" y2="99"/>
      <line class="cls-4" x1="77.5" y1="100" x2="62.5" y2="100"/>
      <line class="cls-4" x1="59.5" y1="99" x2="44.5" y2="99"/>
      <line class="cls-4" x1="39.5" y1="100" x2="24.5" y2="100"/>
      <line class="cls-4" x1="42.5" y1="97" x2="27.5" y2="97"/>
      <line class="cls-4" x1="21.5" y1="102" x2="6.5" y2="102"/>
      <line class="cls-4" x1="40.5" y1="107" x2="25.5" y2="107"/>
      <line class="cls-4" x1="23.5" y1="105" x2="8.5" y2="105"/>
      <line class="cls-4" x1="21.5" y1="110" x2="6.5" y2="110"/>
      <line class="cls-4" x1="35.5" y1="113" x2="20.5" y2="113"/>
      <line class="cls-4" x1="51.5" y1="94" x2="36.5" y2="94"/>
      <line class="cls-4" x1="68.5" y1="96" x2="53.5" y2="96"/>
      <line class="cls-4" x1="87.5" y1="95" x2="72.5" y2="95"/>
      <line class="cls-4" x1="78.5" y1="92" x2="63.5" y2="92"/>
    </g>
    <ellipse class="cls-3" cx="66" cy="84" rx="65" ry="17"/>
    <g>
      <line class="cls-4" x1="30.49" y1="84.75" x2="17.5" y2="77.25"/>
      <line class="cls-4" x1="37.49" y1="92.75" x2="24.5" y2="85.25"/>
      <line class="cls-4" x1="37.49" y1="96.75" x2="24.5" y2="89.25"/>
      <line class="cls-4" x1="26.49" y1="94.75" x2="13.5" y2="87.25"/>
      <line class="cls-4" x1="21.49" y1="86.75" x2="8.5" y2="79.25"/>
      <line class="cls-4" x1="16.49" y1="91.75" x2="3.5" y2="84.25"/>
      <line class="cls-4" x1="39.49" y1="81.75" x2="26.5" y2="74.25"/>
      <line class="cls-4" x1="45.49" y1="89.75" x2="32.5" y2="82.25"/>
      <line class="cls-4" x1="51.49" y1="96.75" x2="38.5" y2="89.25"/>
      <line class="cls-4" x1="54.49" y1="87.75" x2="41.5" y2="80.25"/>
      <line class="cls-4" x1="63.49" y1="97.75" x2="50.5" y2="90.25"/>
      <line class="cls-4" x1="71.49" y1="93.75" x2="58.5" y2="86.25"/>
      <line class="cls-4" x1="72.49" y1="97.75" x2="59.5" y2="90.25"/>
      <line class="cls-4" x1="58.49" y1="83.75" x2="45.5" y2="76.25"/>
      <line class="cls-4" x1="68.5" y1="81.28" x2="55.5" y2="73.78"/>
      <line class="cls-4" x1="71.5" y1="87.28" x2="58.5" y2="79.78"/>
      <line class="cls-4" x1="81.5" y1="96.28" x2="68.5" y2="88.78"/>
      <line class="cls-4" x1="82.5" y1="86.28" x2="69.5" y2="78.78"/>
      <line class="cls-4" x1="79.5" y1="80.28" x2="66.5" y2="72.78"/>
      <line class="cls-4" x1="92.5" y1="96.28" x2="79.5" y2="88.78"/>
      <line class="cls-4" x1="91.5" y1="80.28" x2="78.5" y2="72.78"/>
      <line class="cls-4" x1="96.5" y1="88.28" x2="83.5" y2="80.78"/>
      <line class="cls-4" x1="104.5" y1="84.28" x2="91.5" y2="76.78"/>
      <line class="cls-4" x1="109.5" y1="92.28" x2="96.5" y2="84.78"/>
      <line class="cls-4" x1="107.5" y1="79.28" x2="94.5" y2="71.78"/>
      <line class="cls-4" x1="118.5" y1="89.28" x2="105.5" y2="81.78"/>
      <line class="cls-4" x1="123.5" y1="82.28" x2="110.5" y2="74.78"/>
      <line class="cls-4" x1="124.5" y1="87.28" x2="111.5" y2="79.78"/>
    </g>
    <ellipse class="cls-3" cx="66" cy="62" rx="65" ry="17"/>
    <g>
      <line class="cls-4" x1="86" y1="57.5" x2="86" y2="48.5"/>
      <line class="cls-4" x1="113" y1="69.5" x2="113" y2="56.5"/>
      <line class="cls-4" x1="119" y1="68" x2="119" y2="56"/>
      <line class="cls-4" x1="69" y1="58.5" x2="69" y2="49.5"/>
      <line class="cls-4" x1="49" y1="56.5" x2="49" y2="47.5"/>
      <line class="cls-4" x1="28" y1="71.5" x2="28" y2="58.5"/>
      <line class="cls-4" x1="24" y1="69.5" x2="24" y2="56.5"/>
      <line class="cls-4" x1="32" y1="56.5" x2="32" y2="47.5"/>
      <line class="cls-4" x1="20" y1="70.5" x2="20" y2="57.5"/>
      <line class="cls-4" x1="16" y1="67.5" x2="16" y2="54.5"/>
      <line class="cls-4" x1="13" y1="68" x2="13" y2="56"/>
      <line class="cls-4" x1="44" y1="75.5" x2="44" y2="62.5"/>
      <line class="cls-4" x1="40" y1="69.5" x2="40" y2="56.5"/>
      <line class="cls-4" x1="36" y1="71.5" x2="36" y2="58.5"/>
      <line class="cls-4" x1="32" y1="72.5" x2="32" y2="59.5"/>
      <line class="cls-4" x1="56" y1="74.5" x2="56" y2="61.5"/>
      <line class="cls-4" x1="52" y1="74.5" x2="52" y2="61.5"/>
      <line class="cls-4" x1="48" y1="73.5" x2="48" y2="60.5"/>
      <line class="cls-4" x1="72" y1="75.5" x2="72" y2="62.5"/>
      <line class="cls-4" x1="68" y1="76.5" x2="68" y2="63.5"/>
      <line class="cls-4" x1="64" y1="74.5" x2="64" y2="61.5"/>
      <line class="cls-4" x1="60" y1="70.5" x2="60" y2="57.5"/>
      <line class="cls-4" x1="84" y1="73.5" x2="84" y2="60.5"/>
      <line class="cls-4" x1="80" y1="75.5" x2="80" y2="62.5"/>
      <line class="cls-4" x1="76" y1="72.5" x2="76" y2="59.5"/>
      <line class="cls-4" x1="100" y1="73.5" x2="100" y2="60.5"/>
      <line class="cls-4" x1="96" y1="74.5" x2="96" y2="61.5"/>
      <line class="cls-4" x1="92" y1="73.5" x2="92" y2="60.5"/>
      <line class="cls-4" x1="88" y1="74.5" x2="88" y2="61.5"/>
      <line class="cls-4" x1="109" y1="66.5" x2="109" y2="53.5"/>
      <line class="cls-4" x1="104" y1="70.5" x2="104" y2="57.5"/>
      <line class="cls-4" x1="97" y1="58.5" x2="97" y2="49.5"/>
    </g>
    <ellipse class="cls-3" cx="66" cy="40" rx="65" ry="17"/>
    <g>
      <line class="cls-4" x1="99.5" y1="40.75" x2="112.5" y2="33.25"/>
      <line class="cls-4" x1="92.5" y1="48.75" x2="105.5" y2="41.25"/>
      <line class="cls-4" x1="92.5" y1="52.75" x2="105.5" y2="45.25"/>
      <line class="cls-4" x1="103.5" y1="50.75" x2="116.5" y2="43.25"/>
      <line class="cls-4" x1="108.5" y1="42.75" x2="121.5" y2="35.25"/>
      <line class="cls-4" x1="113.5" y1="47.75" x2="126.5" y2="40.25"/>
      <line class="cls-4" x1="98.5" y1="35.75" x2="111.5" y2="28.25"/>
      <line class="cls-4" x1="84.5" y1="45.75" x2="97.5" y2="38.25"/>
      <line class="cls-4" x1="78.5" y1="52.75" x2="91.5" y2="45.25"/>
      <line class="cls-4" x1="75.5" y1="43.75" x2="88.5" y2="36.25"/>
      <line class="cls-4" x1="66.5" y1="53.75" x2="79.5" y2="46.25"/>
      <line class="cls-4" x1="58.5" y1="49.75" x2="71.5" y2="42.25"/>
      <line class="cls-4" x1="57.5" y1="53.75" x2="70.5" y2="46.25"/>
      <line class="cls-4" x1="71.5" y1="39.75" x2="84.5" y2="32.25"/>
      <line class="cls-4" x1="61.5" y1="37.28" x2="74.49" y2="29.78"/>
      <line class="cls-4" x1="58.5" y1="43.28" x2="71.49" y2="35.78"/>
      <line class="cls-4" x1="48.5" y1="52.28" x2="61.49" y2="44.78"/>
      <line class="cls-4" x1="47.5" y1="42.28" x2="60.49" y2="34.78"/>
      <line class="cls-4" x1="50.5" y1="36.28" x2="63.49" y2="28.78"/>
      <line class="cls-4" x1="37.5" y1="52.28" x2="50.49" y2="44.78"/>
      <line class="cls-4" x1="38.5" y1="36.28" x2="51.49" y2="28.78"/>
      <line class="cls-4" x1="33.5" y1="44.28" x2="46.49" y2="36.78"/>
      <line class="cls-4" x1="25.5" y1="40.28" x2="38.49" y2="32.78"/>
      <line class="cls-4" x1="20.5" y1="48.28" x2="33.49" y2="40.78"/>
      <line class="cls-4" x1="22.5" y1="35.28" x2="35.49" y2="27.78"/>
      <line class="cls-4" x1="11.5" y1="45.28" x2="24.49" y2="37.78"/>
      <line class="cls-4" x1="6.5" y1="38.28" x2="19.49" y2="30.78"/>
      <line class="cls-4" x1="5.5" y1="43.28" x2="18.49" y2="35.78"/>
    </g>
    <ellipse class="cls-3" cx="66" cy="18" rx="65" ry="17"/>
    <g>
      <line class="cls-4" x1="58.5" y1="16" x2="73.5" y2="16"/>
      <line class="cls-4" x1="65.5" y1="19" x2="80.5" y2="19"/>
      <line class="cls-4" x1="42.5" y1="19" x2="57.5" y2="19"/>
      <line class="cls-4" x1="53.5" y1="22" x2="68.5" y2="22"/>
      <line class="cls-4" x1="77.5" y1="15" x2="92.5" y2="15"/>
      <line class="cls-4" x1="75.5" y1="22" x2="90.5" y2="22"/>
      <line class="cls-4" x1="68.5" y1="25" x2="83.5" y2="25"/>
      <line class="cls-4" x1="82.5" y1="28" x2="97.5" y2="28"/>
      <line class="cls-4" x1="77.5" y1="31" x2="92.5" y2="31"/>
      <line class="cls-4" x1="59.5" y1="29" x2="74.5" y2="29"/>
      <line class="cls-4" x1="46.5" y1="26" x2="61.5" y2="26"/>
      <line class="cls-4" x1="35.5" y1="30" x2="50.5" y2="30"/>
      <line class="cls-4" x1="30.5" y1="23" x2="45.5" y2="23"/>
      <line class="cls-4" x1="19.5" y1="27" x2="34.5" y2="27"/>
      <line class="cls-4" x1="9.5" y1="22" x2="24.5" y2="22"/>
      <line class="cls-4" x1="21.5" y1="18" x2="36.5" y2="18"/>
      <line class="cls-4" x1="4.5" y1="16" x2="19.5" y2="16"/>
      <line class="cls-4" x1="12.5" y1="13" x2="27.5" y2="13"/>
      <line class="cls-4" x1="23.5" y1="8" x2="38.5" y2="8"/>
      <line class="cls-4" x1="37.5" y1="15" x2="52.5" y2="15"/>
      <line class="cls-4" x1="33.5" y1="11" x2="48.5" y2="11"/>
      <line class="cls-4" x1="53.5" y1="12" x2="68.5" y2="12"/>
      <line class="cls-4" x1="71.5" y1="11" x2="86.5" y2="11"/>
      <line class="cls-4" x1="91.5" y1="12" x2="106.5" y2="12"/>
      <line class="cls-4" x1="88.5" y1="9" x2="103.5" y2="9"/>
      <line class="cls-4" x1="109.5" y1="14" x2="124.5" y2="14"/>
      <line class="cls-4" x1="90.5" y1="19" x2="105.5" y2="19"/>
      <line class="cls-4" x1="107.5" y1="17" x2="122.5" y2="17"/>
      <line class="cls-4" x1="109.5" y1="22" x2="124.5" y2="22"/>
      <line class="cls-4" x1="95.5" y1="25" x2="110.5" y2="25"/>
      <line class="cls-4" x1="79.5" y1="6" x2="94.5" y2="6"/>
      <line class="cls-4" x1="62.5" y1="8" x2="77.5" y2="8"/>
      <line class="cls-4" x1="43.5" y1="7" x2="58.5" y2="7"/>
      <line class="cls-4" x1="52.5" y1="4" x2="67.5" y2="4"/>
    </g>
    <g>
      <line class="cls-5" x1="143" y1="19" x2="143" y2="105"/>
      <rect class="cls-7" x="136.5" y="18" width="13" height="2"/>
      <rect class="cls-7" x="136.5" y="104" width="13" height="2"/>
    </g>
    <text class="cls-6" transform="translate(148.18 65.52)"><tspan class="cls-1" x="0" y="0">p</tspan><tspan class="cls-2" x="6.3" y="0">/2</tspan></text>
  </g>
</svg>