<?xml version="1.0" encoding="UTF-8" standalone="no"?>
<svg
   xmlns:dc="http://purl.org/dc/elements/1.1/"
   xmlns:cc="http://creativecommons.org/ns#"
   xmlns:rdf="http://www.w3.org/1999/02/22-rdf-syntax-ns#"
   xmlns:svg="http://www.w3.org/2000/svg"
   xmlns="http://www.w3.org/2000/svg"
   version="1.1"
   id="svg2"
   height="769.96283"
   width="771.65289">
  <defs
     id="defs4">
    <marker
       style="overflow:visible"
       id="Arrow1SendH0h"
       refX="0"
       refY="0"
       orient="auto">
      <path
         transform="matrix(-0.2,0,0,-0.2,-1.2,0)"
         style="marker-start:none;stroke:#ff0000;stroke-width:1pt;fill:#ff0000;fill-rule:evenodd"
         d="M 0,0 5,-5 -12.5,0 5,5 0,0 z"
         id="path4562" />
    </marker>
    <marker
       style="overflow:visible"
       id="Arrow1SendH6C"
       refX="0"
       refY="0"
       orient="auto">
      <path
         transform="matrix(-0.2,0,0,-0.2,-1.2,0)"
         style="marker-start:none;stroke:#ff0000;stroke-width:1pt;fill:#ff0000;fill-rule:evenodd"
         d="M 0,0 5,-5 -12.5,0 5,5 0,0 z"
         id="path4891" />
    </marker>
    <marker
       style="overflow:visible"
       id="Arrow1SendHOv"
       refX="0"
       refY="0"
       orient="auto">
      <path
         transform="matrix(-0.2,0,0,-0.2,-1.2,0)"
         style="marker-start:none;stroke:#ff0000;stroke-width:1pt;fill:#ff0000;fill-rule:evenodd"
         d="M 0,0 5,-5 -12.5,0 5,5 0,0 z"
         id="path4894" />
    </marker>
    <marker
       style="overflow:visible"
       id="Arrow1SendHjW"
       refX="0"
       refY="0"
       orient="auto">
      <path
         transform="matrix(-0.2,0,0,-0.2,-1.2,0)"
         style="marker-start:none;stroke:#ff0000;stroke-width:1pt;fill:#ff0000;fill-rule:evenodd"
         d="M 0,0 5,-5 -12.5,0 5,5 0,0 z"
         id="path4897" />
    </marker>
    <marker
       style="overflow:visible"
       id="Arrow1SendHlC"
       refX="0"
       refY="0"
       orient="auto">
      <path
         transform="matrix(-0.2,0,0,-0.2,-1.2,0)"
         style="marker-start:none;stroke:#ff0000;stroke-width:1pt;fill:#ff0000;fill-rule:evenodd"
         d="M 0,0 5,-5 -12.5,0 5,5 0,0 z"
         id="path4900" />
    </marker>
  </defs>
  <metadata
     id="metadata7">
    <rdf:RDF>
      <cc:Work
         rdf:about="">
        <dc:format>image/svg+xml</dc:format>
        <dc:type
           rdf:resource="http://purl.org/dc/dcmitype/StillImage" />
        <dc:title></dc:title>
      </cc:Work>
    </rdf:RDF>
  </metadata>
  <g
     id="layer1"
     transform="translate(28.015385,-44.349348)">
    <path
       id="path5605"
       style="color:#000000;fill:none;stroke:#04b60b;stroke-width:5;stroke-linecap:round;stroke-linejoin:round;stroke-miterlimit:4;stroke-opacity:1;stroke-dasharray:none;stroke-dashoffset:2.70000000000000020;marker:none;visibility:visible;display:inline;overflow:visible;enable-background:accumulate"
       d="m 164.61581,129.78321 c 15.28532,-10.14505 62.45799,34.0352 105.36311,98.67938 m 0,0 c 42.9051,64.64415 65.29537,125.2728 50.01004,135.41785" />
    <path
       style="color:#000000;fill:none;stroke:#04b60b;stroke-width:5;stroke-linecap:round;stroke-linejoin:round;stroke-miterlimit:4;stroke-opacity:1;stroke-dasharray:none;stroke-dashoffset:2.70000000000000020;marker:none;visibility:visible;display:inline;overflow:visible;enable-background:accumulate"
       d="m 195.97623,177.03323 c 9.11497,-6.0497 37.24503,20.29592 62.83026,58.84461 25.58523,38.54868 38.93703,74.70283 29.82205,80.75255"
       id="path5607" />
    <path
       style="color:#000000;fill:none;stroke:#04b60b;stroke-width:5;stroke-linecap:round;stroke-linejoin:round;stroke-miterlimit:4;stroke-opacity:1;stroke-dasharray:none;stroke-dashoffset:2.70000000000000020;marker:none;visibility:visible;display:inline;overflow:visible;enable-background:accumulate"
       d="m 213.7893,203.87179 c 5.61014,-3.72352 22.9238,12.49185 38.67112,36.21801 15.74736,23.72617 23.96519,45.97852 18.35506,49.70203"
       id="path5609" />
    <path
       style="color:#000000;fill:none;stroke:#04b60b;stroke-width:5;stroke-linecap:round;stroke-linejoin:round;stroke-miterlimit:4;stroke-opacity:1;stroke-dasharray:none;stroke-dashoffset:2.70000000000000020;marker:none;visibility:visible;display:inline;overflow:visible;enable-background:accumulate"
       d="m 228.49267,226.02501 c 2.71717,-1.80342 11.10266,6.05018 18.72955,17.54144 7.62691,11.49126 11.60705,22.26873 8.88988,24.07214"
       id="path5611" />
    <path
       d="m 32.722614,281.08567 c 7.51894,-16.73406 70.985566,-4.52164 141.756696,27.27721 m 0,0 c 70.77109,31.79884 122.04712,71.14255 114.52817,87.8766"
       style="color:#000000;fill:none;stroke:#04b60b;stroke-width:5;stroke-linecap:butt;stroke-linejoin:round;stroke-miterlimit:4;stroke-opacity:1;stroke-dasharray:none;stroke-dashoffset:2.7;marker:none;visibility:visible;display:inline;overflow:visible;enable-background:accumulate"
       id="path5581" />
    <path
       id="path5583"
       d="m 84.450982,304.32823 c 4.483714,-9.97888 42.330208,-2.69635 84.532518,16.26598 42.20232,18.96232 72.77931,42.4238 68.29559,52.40268"
       style="color:#000000;fill:none;stroke:#04b60b;stroke-width:5;stroke-linecap:butt;stroke-linejoin:round;stroke-miterlimit:4;stroke-opacity:1;stroke-dasharray:none;stroke-dashoffset:2.7;marker:none;visibility:visible;display:inline;overflow:visible;enable-background:accumulate" />
    <path
       id="path5585"
       d="m 113.83329,317.53028 c 2.75966,-6.14187 26.05364,-1.65958 52.02855,10.01147 25.97493,11.67104 44.79462,26.11125 42.03496,32.25309"
       style="color:#000000;fill:none;stroke:#04b60b;stroke-width:5;stroke-linecap:butt;stroke-linejoin:round;stroke-miterlimit:4;stroke-opacity:1;stroke-dasharray:none;stroke-dashoffset:2.7;marker:none;visibility:visible;display:inline;overflow:visible;enable-background:accumulate" />
    <path
       id="path5587"
       d="m 138.08619,328.42757 c 1.33659,-2.9747 12.61854,-0.80377 25.19894,4.84886 12.58042,5.6526 21.69535,12.64642 20.35875,15.62111"
       style="color:#000000;fill:none;stroke:#04b60b;stroke-width:5;stroke-linecap:butt;stroke-linejoin:round;stroke-miterlimit:4;stroke-opacity:1;stroke-dasharray:none;stroke-dashoffset:2.7;marker:none;visibility:visible;display:inline;overflow:visible;enable-background:accumulate" />
    <path
       id="path5516"
       style="color:#000000;fill:none;stroke:#04b60b;stroke-width:5;stroke-linecap:butt;stroke-linejoin:round;stroke-miterlimit:4;stroke-opacity:1;stroke-dasharray:none;stroke-dashoffset:2.7;marker:none;visibility:visible;display:inline;overflow:visible;enable-background:accumulate"
       d="M 4.0762542,481.94316 C 1.3158239,463.80637 61.25852,439.63968 137.96204,427.96536 m 0,0 c 76.70348,-11.67432 141.12174,-6.43545 143.88216,11.70134" />
    <path
       style="color:#000000;fill:none;stroke:#04b60b;stroke-width:5;stroke-linecap:butt;stroke-linejoin:round;stroke-miterlimit:4;stroke-opacity:1;stroke-dasharray:none;stroke-dashoffset:2.7;marker:none;visibility:visible;display:inline;overflow:visible;enable-background:accumulate"
       d="m 60.140749,473.4101 c -1.646095,-10.81536 34.099008,-25.22647 79.838931,-32.18811 45.73992,-6.96165 84.1539,-3.83761 85.8,6.97776"
       id="path5518" />
    <path
       style="color:#000000;fill:none;stroke:#04b60b;stroke-width:5;stroke-linecap:butt;stroke-linejoin:round;stroke-miterlimit:4;stroke-opacity:1;stroke-dasharray:none;stroke-dashoffset:2.7;marker:none;visibility:visible;display:inline;overflow:visible;enable-background:accumulate"
       d="m 91.986027,468.56323 c -1.013155,-6.65671 20.987453,-15.52654 49.139713,-19.81132 28.15228,-4.2848 51.79552,-2.36199 52.80867,4.2947"
       id="path5520" />
    <path
       style="color:#000000;fill:none;stroke:#04b60b;stroke-width:5;stroke-linecap:butt;stroke-linejoin:round;stroke-miterlimit:4;stroke-opacity:1;stroke-dasharray:none;stroke-dashoffset:2.7;marker:none;visibility:visible;display:inline;overflow:visible;enable-background:accumulate"
       d="m 118.27192,464.56249 c -0.4907,-3.22405 10.16485,-7.51995 23.7998,-9.59519 13.63496,-2.07527 25.08608,-1.144 25.57677,2.08005"
       id="path5522" />
    <path
       d="M 88.287849,664.39472 C 76.277234,650.52719 114.08436,598.10795 172.73245,547.31306 m 0,0 c 58.64806,-50.79487 115.92826,-80.73041 127.93887,-66.86288"
       style="color:#000000;fill:none;stroke:#04b60b;stroke-width:5;stroke-linecap:butt;stroke-linejoin:round;stroke-miterlimit:4;stroke-opacity:1;stroke-dasharray:none;stroke-dashoffset:2.7;marker:none;visibility:visible;display:inline;overflow:visible;enable-background:accumulate"
       id="path5473" />
    <path
       id="path5471"
       d="m 131.15518,627.26747 c -7.16218,-8.26951 15.38301,-39.52822 50.3561,-69.81828 34.97309,-30.29007 69.13049,-48.14127 76.29268,-39.87176"
       style="color:#000000;fill:none;stroke:#04b60b;stroke-width:5;stroke-linecap:butt;stroke-linejoin:round;stroke-miterlimit:4;stroke-opacity:1;stroke-dasharray:none;stroke-dashoffset:2.7;marker:none;visibility:visible;display:inline;overflow:visible;enable-background:accumulate" />
    <path
       id="path5469"
       d="m 155.50432,606.17877 c -4.40823,-5.08977 9.46802,-24.32906 30.99346,-42.97215 21.52544,-18.64311 42.54882,-29.63026 46.95704,-24.5405"
       style="color:#000000;fill:none;stroke:#04b60b;stroke-width:5;stroke-linecap:butt;stroke-linejoin:round;stroke-miterlimit:4;stroke-opacity:1;stroke-dasharray:none;stroke-dashoffset:2.7;marker:none;visibility:visible;display:inline;overflow:visible;enable-background:accumulate" />
    <path
       id="path5467"
       d="m 175.60271,588.77162 c -2.13504,-2.46513 4.58565,-11.78328 15.01104,-20.81266 10.42539,-9.02941 20.60763,-14.35081 22.74266,-11.88568"
       style="color:#000000;fill:none;stroke:#04b60b;stroke-width:5;stroke-linecap:butt;stroke-linejoin:round;stroke-miterlimit:4;stroke-opacity:1;stroke-dasharray:none;stroke-dashoffset:2.7;marker:none;visibility:visible;display:inline;overflow:visible;enable-background:accumulate" />
    <path
       id="path5749"
       style="color:#000000;fill:none;stroke:#04b60b;stroke-width:5;stroke-linecap:butt;stroke-linejoin:round;stroke-miterlimit:4;stroke-opacity:1;stroke-dasharray:none;stroke-dashoffset:2.7;marker:none;visibility:visible;display:inline;overflow:visible;enable-background:accumulate"
       d="m 465.22893,779.97984 c -17.57372,5.26569 -49.87302,-50.71565 -72.14249,-125.03786 m 0,0 C 370.81697,580.61981 367.01031,516.10108 384.58403,510.8354" />
    <path
       style="color:#000000;fill:none;stroke:#04b60b;stroke-width:5;stroke-linecap:butt;stroke-linejoin:round;stroke-miterlimit:4;stroke-opacity:1;stroke-dasharray:none;stroke-dashoffset:2.7;marker:none;visibility:visible;display:inline;overflow:visible;enable-background:accumulate"
       d="m 448.95161,725.65591 c -10.47959,3.14004 -29.74035,-30.24283 -43.0201,-74.56272 -13.27976,-44.3199 -15.54977,-82.79379 -5.07016,-85.93383"
       id="path5751" />
    <path
       style="color:#000000;fill:none;stroke:#04b60b;stroke-width:5;stroke-linecap:butt;stroke-linejoin:round;stroke-miterlimit:4;stroke-opacity:1;stroke-dasharray:none;stroke-dashoffset:2.7;marker:none;visibility:visible;display:inline;overflow:visible;enable-background:accumulate"
       d="m 439.70591,694.79929 c -6.45004,1.93266 -18.30476,-18.61403 -26.47825,-45.89228 -8.17351,-27.27827 -9.57066,-50.95839 -3.12063,-52.89104"
       id="path5753" />
    <path
       style="color:#000000;fill:none;stroke:#04b60b;stroke-width:5;stroke-linecap:butt;stroke-linejoin:round;stroke-miterlimit:4;stroke-opacity:1;stroke-dasharray:none;stroke-dashoffset:2.7;marker:none;visibility:visible;display:inline;overflow:visible;enable-background:accumulate"
       d="m 432.07427,669.32947 c -3.12396,0.93604 -8.86553,-9.01534 -12.82418,-22.22698 -3.95869,-13.21165 -4.63537,-24.68063 -1.51141,-25.61667"
       id="path5755" />
    <path
       d="m 258.5211,781.9989 c -17.63951,-5.04089 -14.65688,-69.60295 6.66192,-144.20341 m 0,0 C 286.5018,563.19506 318.08376,506.8059 335.72327,511.84681"
       style="color:#000000;fill:none;stroke:#04b60b;stroke-width:5;stroke-linecap:butt;stroke-linejoin:round;stroke-miterlimit:4;stroke-opacity:1;stroke-dasharray:none;stroke-dashoffset:2.7;marker:none;visibility:visible;display:inline;overflow:visible;enable-background:accumulate"
       id="path5773" />
    <path
       id="path5775"
       d="m 274.10353,727.47158 c -10.51882,-3.006 -8.74021,-41.50573 3.97264,-85.99155 12.71284,-44.48583 31.54582,-78.11189 42.06466,-75.10589"
       style="color:#000000;fill:none;stroke:#04b60b;stroke-width:5;stroke-linecap:butt;stroke-linejoin:round;stroke-miterlimit:4;stroke-opacity:1;stroke-dasharray:none;stroke-dashoffset:2.7;marker:none;visibility:visible;display:inline;overflow:visible;enable-background:accumulate" />
    <path
       id="path5777"
       d="m 282.95453,696.49944 c -6.47419,-1.85015 -5.37948,-25.54619 2.4451,-52.92656 7.82458,-27.38041 19.41601,-48.07675 25.89019,-46.2266"
       style="color:#000000;fill:none;stroke:#04b60b;stroke-width:5;stroke-linecap:butt;stroke-linejoin:round;stroke-miterlimit:4;stroke-opacity:1;stroke-dasharray:none;stroke-dashoffset:2.7;marker:none;visibility:visible;display:inline;overflow:visible;enable-background:accumulate" />
    <path
       id="path5779"
       d="m 290.26036,670.93425 c -3.13565,-0.89609 -2.60543,-12.37277 1.18425,-25.63388 3.78965,-13.26112 9.40372,-23.28498 12.53937,-22.38888"
       style="color:#000000;fill:none;stroke:#04b60b;stroke-width:5;stroke-linecap:butt;stroke-linejoin:round;stroke-miterlimit:4;stroke-opacity:1;stroke-dasharray:none;stroke-dashoffset:2.7;marker:none;visibility:visible;display:inline;overflow:visible;enable-background:accumulate" />
    <path
       d="m 630.76687,660.32966 c -11.90828,13.9555 -69.40713,-15.55784 -128.42729,-65.91994 m 0,0 C 443.31944,544.04766 405.12771,491.90795 417.036,477.95245"
       style="color:#000000;fill:none;stroke:#04b60b;stroke-width:5;stroke-linecap:butt;stroke-linejoin:round;stroke-miterlimit:4;stroke-opacity:1;stroke-dasharray:none;stroke-dashoffset:2.7;marker:none;visibility:visible;display:inline;overflow:visible;enable-background:accumulate"
       id="path5725" />
    <path
       id="path5727"
       d="m 587.62757,623.51877 c -7.10117,8.32196 -41.38896,-9.27747 -76.58392,-39.30945 -35.19497,-30.03197 -57.96952,-61.12398 -50.86834,-69.44596"
       style="color:#000000;fill:none;stroke:#04b60b;stroke-width:5;stroke-linecap:butt;stroke-linejoin:round;stroke-miterlimit:4;stroke-opacity:1;stroke-dasharray:none;stroke-dashoffset:2.7;marker:none;visibility:visible;display:inline;overflow:visible;enable-background:accumulate" />
    <path
       id="path5729"
       d="m 563.12395,602.60976 c -4.37067,5.12206 -25.47431,-5.71015 -47.1363,-24.1944 -21.66201,-18.48425 -35.6794,-37.62094 -31.30874,-42.74298"
       style="color:#000000;fill:none;stroke:#04b60b;stroke-width:5;stroke-linecap:butt;stroke-linejoin:round;stroke-miterlimit:4;stroke-opacity:1;stroke-dasharray:none;stroke-dashoffset:2.7;marker:none;visibility:visible;display:inline;overflow:visible;enable-background:accumulate" />
    <path
       id="path5731"
       d="m 542.89804,585.35094 c -2.11685,2.48077 -12.33796,-2.7656 -22.82948,-11.71806 -10.49154,-8.95244 -17.28059,-18.2209 -15.16373,-20.70167"
       style="color:#000000;fill:none;stroke:#04b60b;stroke-width:5;stroke-linecap:butt;stroke-linejoin:round;stroke-miterlimit:4;stroke-opacity:1;stroke-dasharray:none;stroke-dashoffset:2.7;marker:none;visibility:visible;display:inline;overflow:visible;enable-background:accumulate" />
    <path
       id="path5701"
       style="color:#000000;fill:none;stroke:#04b60b;stroke-width:5;stroke-linecap:butt;stroke-linejoin:round;stroke-miterlimit:4;stroke-opacity:1;stroke-dasharray:none;stroke-dashoffset:2.7;marker:none;visibility:visible;display:inline;overflow:visible;enable-background:accumulate"
       d="m 711.55585,479.32204 c -2.60701,18.15947 -66.97866,23.94275 -143.77813,12.91729 m 0,0 c -76.79944,-11.02545 -136.94431,-34.68452 -134.3373,-52.844" />
    <path
       style="color:#000000;fill:none;stroke:#04b60b;stroke-width:5;stroke-linecap:butt;stroke-linejoin:round;stroke-miterlimit:4;stroke-opacity:1;stroke-dasharray:none;stroke-dashoffset:2.7;marker:none;visibility:visible;display:inline;overflow:visible;enable-background:accumulate"
       d="m 655.42121,471.26326 c -1.55462,10.82889 -39.9408,14.27758 -85.73794,7.70287 -45.79714,-6.57471 -81.66282,-20.68311 -80.1082,-31.51201"
       id="path5703" />
    <path
       style="color:#000000;fill:none;stroke:#04b60b;stroke-width:5;stroke-linecap:butt;stroke-linejoin:round;stroke-miterlimit:4;stroke-opacity:1;stroke-dasharray:none;stroke-dashoffset:2.7;marker:none;visibility:visible;display:inline;overflow:visible;enable-background:accumulate"
       d="m 623.5361,466.68578 c -0.95684,6.66504 -24.583,8.78766 -52.77047,4.74101 -28.1875,-4.04664 -50.26229,-12.73016 -49.30545,-19.39518"
       id="path5705" />
    <path
       style="color:#000000;fill:none;stroke:#04b60b;stroke-width:5;stroke-linecap:butt;stroke-linejoin:round;stroke-miterlimit:4;stroke-opacity:1;stroke-dasharray:none;stroke-dashoffset:2.7;marker:none;visibility:visible;display:inline;overflow:visible;enable-background:accumulate"
       d="m 597.21732,462.90743 c -0.46343,3.22808 -11.90627,4.2561 -25.55828,2.29619 -13.65202,-1.95988 -24.3435,-6.16557 -23.88006,-9.39365"
       id="path5707" />
    <path
       id="path5683"
       d="m 579.49328,328.68998 c 1.36606,2.96128 -7.67898,10.04525 -20.20263,15.82251 -12.52364,5.7773 -23.78349,8.06013 -25.14954,5.09886"
       style="color:#000000;fill:none;stroke:#04b60b;stroke-width:5;stroke-linecap:butt;stroke-linejoin:round;stroke-miterlimit:4;stroke-opacity:1;stroke-dasharray:none;stroke-dashoffset:2.7;marker:none;visibility:visible;display:inline;overflow:visible;enable-background:accumulate" />
    <path
       d="m 684.38151,280.30406 c 7.68475,16.65856 -43.19802,56.50953 -113.64988,89.00961 m 0,0 c -70.45182,32.50007 -133.79406,45.34216 -141.4788,28.68359"
       style="color:#000000;fill:none;stroke:#04b60b;stroke-width:5;stroke-linecap:butt;stroke-linejoin:round;stroke-miterlimit:4;stroke-opacity:1;stroke-dasharray:none;stroke-dashoffset:2.7;marker:none;visibility:visible;display:inline;overflow:visible;enable-background:accumulate"
       id="path5677" />
    <path
       id="path5679"
       d="m 632.88651,304.05918 c 4.58258,9.93387 -25.7599,33.69784 -67.77183,53.07832 -42.01192,19.38049 -79.78424,27.03851 -84.36682,17.10464"
       style="color:#000000;fill:none;stroke:#04b60b;stroke-width:5;stroke-linecap:butt;stroke-linejoin:round;stroke-miterlimit:4;stroke-opacity:1;stroke-dasharray:none;stroke-dashoffset:2.7;marker:none;visibility:visible;display:inline;overflow:visible;enable-background:accumulate" />
    <path
       id="path5681"
       d="m 603.63676,317.55236 c 2.82052,6.11416 -15.85485,20.74055 -41.71259,32.66894 -25.85774,11.92843 -49.10606,16.64181 -51.92656,10.52767"
       style="color:#000000;fill:none;stroke:#04b60b;stroke-width:5;stroke-linecap:butt;stroke-linejoin:round;stroke-miterlimit:4;stroke-opacity:1;stroke-dasharray:none;stroke-dashoffset:2.7;marker:none;visibility:visible;display:inline;overflow:visible;enable-background:accumulate" />
    <path
       style="color:#000000;fill:none;stroke:#04b60b;stroke-width:5;stroke-linecap:butt;stroke-linejoin:round;stroke-miterlimit:4;stroke-opacity:1;stroke-dasharray:none;stroke-dashoffset:2.7;marker:none;visibility:visible;display:inline;overflow:visible;enable-background:accumulate"
       d="m 489.89089,227.04431 c 2.75569,1.74398 -0.98947,12.60535 -8.36501,24.25953 -7.37551,11.65421 -15.58848,19.68805 -18.34416,17.94406"
       id="path5659" />
    <path
       d="m 359.33933,76.349404 c 18.34553,-0.06847 33.45228,62.772136 33.74185,140.358446 m 0,0 c 0.28958,77.58627 -14.34766,140.53791 -32.69319,140.60638"
       style="color:#000000;fill:none;stroke:#04b60b;stroke-width:5;stroke-linecap:butt;stroke-linejoin:round;stroke-miterlimit:4;stroke-opacity:1;stroke-dasharray:none;stroke-dashoffset:2.7;marker:none;visibility:visible;display:inline;overflow:visible;enable-background:accumulate"
       id="path5629" />
    <path
       id="path5631"
       d="m 359.551,133.05916 c 10.93983,-0.0408 19.94831,37.43236 20.12098,83.69871 0.17269,46.26635 -8.5558,83.80576 -19.49564,83.84658"
       style="color:#000000;fill:none;stroke:#04b60b;stroke-width:5;stroke-linecap:round;stroke-linejoin:round;stroke-miterlimit:4;stroke-opacity:1;stroke-dasharray:none;stroke-dashoffset:2.70000000000000020;marker:none;visibility:visible;display:inline;overflow:visible;enable-background:accumulate" />
    <path
       id="path5633"
       d="m 359.67122,165.27095 c 6.73332,-0.0251 12.27791,23.03908 12.38418,51.51535 0.10629,28.47629 -5.26598,51.58124 -11.99928,51.60637"
       style="color:#000000;fill:none;stroke:#04b60b;stroke-width:5;stroke-linecap:round;stroke-linejoin:round;stroke-miterlimit:4;stroke-opacity:1;stroke-dasharray:none;stroke-dashoffset:2.70000000000000020;marker:none;visibility:visible;display:inline;overflow:visible;enable-background:accumulate" />
    <path
       id="path5635"
       d="m 359.77047,191.85937 c 3.26115,-0.0122 5.94654,11.15851 5.99801,24.95039 0.0515,13.79189 -2.55045,24.9823 -5.8116,24.99446"
       style="color:#000000;fill:none;stroke:#04b60b;stroke-width:5;stroke-linecap:round;stroke-linejoin:round;stroke-miterlimit:4;stroke-opacity:1;stroke-dasharray:none;stroke-dashoffset:2.70000000000000020;marker:none;visibility:visible;display:inline;overflow:visible;enable-background:accumulate" />
    <path
       id="path5653"
       style="color:#000000;fill:none;stroke:#04b60b;stroke-width:5;stroke-linecap:butt;stroke-linejoin:round;stroke-miterlimit:4;stroke-opacity:1;stroke-dasharray:none;stroke-dashoffset:2.7;marker:none;visibility:visible;display:inline;overflow:visible;enable-background:accumulate"
       d="m 551.66251,129.43793 c 15.50204,9.8107 -5.56622,70.91131 -47.0573,136.47204 m 0,0 C 463.11415,331.47067 416.91209,376.665 401.41005,366.8543" />
    <path
       style="color:#000000;fill:none;stroke:#04b60b;stroke-width:5;stroke-linecap:butt;stroke-linejoin:round;stroke-miterlimit:4;stroke-opacity:1;stroke-dasharray:none;stroke-dashoffset:2.7;marker:none;visibility:visible;display:inline;overflow:visible;enable-background:accumulate"
       d="m 521.33566,177.3579 c 9.2442,5.85034 -3.31925,42.28593 -28.06126,81.38117 -24.742,39.09524 -52.29327,66.04559 -61.53748,60.19525"
       id="path5655" />
    <path
       style="color:#000000;fill:none;stroke:#04b60b;stroke-width:5;stroke-linecap:butt;stroke-linejoin:round;stroke-miterlimit:4;stroke-opacity:1;stroke-dasharray:none;stroke-dashoffset:2.7;marker:none;visibility:visible;display:inline;overflow:visible;enable-background:accumulate"
       d="m 504.10966,204.57698 c 5.68968,3.60081 -2.04295,26.02639 -17.27131,50.08894 -15.22835,24.06258 -32.18575,40.65012 -37.87542,37.04933"
       id="path5657" />
    <path
       id="path2985"
       d="m 358.5625,206.96875 c -149.6813,0.52438 -242.1141,125.65288 -225.5,250.59375 8.30705,62.47043 43.8327,124.78807 111.25,170.9375 23.10509,15.81622 50.01889,29.705 80.75,41.1875 -44.39049,10.18899 -95.64825,15.98338 -154.375,16.09375 l 0.0625,20 c 73.27524,-0.13771 135.78808,-9.24257 188.5,-24.84375 52.42574,15.12233 114.50765,23.84375 187.25,23.84375 l 0,-20 c -57.94464,0 -108.67145,-5.60977 -152.6875,-15.53125 C 513.4108,623.44876 573.1684,540.73728 584.25,456.9375 600.81993,331.63466 508.27211,206.44428 358.5625,206.96875 z m 0.0625,20 C 497.25945,226.48307 579.52641,340.20919 564.4375,454.3125 553.5968,536.29055 492.25955,619.69093 360.03125,660.34375 318.54154,647.90947 283.90061,631.35562 255.625,612 192.39856,568.71936 160.43518,511.79133 152.875,454.9375 137.75465,341.22983 219.96224,227.45452 358.625,226.96875 z"
       style="font-size:medium;font-style:normal;font-variant:normal;font-weight:normal;font-stretch:normal;text-indent:0;text-align:start;text-decoration:none;line-height:normal;letter-spacing:normal;word-spacing:normal;text-transform:none;direction:ltr;block-progression:tb;writing-mode:lr-tb;text-anchor:start;baseline-shift:baseline;color:#000000;fill:#dbdbdb;fill-opacity:1;stroke:#030303;stroke-width:4;marker:none;visibility:visible;display:inline;overflow:visible;enable-background:accumulate;font-family:Sans;-inkscape-font-specification:Sans;stroke-opacity:1;stroke-miterlimit:4;stroke-dasharray:none" />
    <g
       transform="translate(2.0203051,26.655433)"
       id="g5417" />
    <path
       style="fill:none;stroke:#ff0000;stroke-width:10;stroke-linecap:butt;stroke-linejoin:miter;stroke-miterlimit:4;stroke-opacity:1;stroke-dasharray:none;marker-end:url(#Arrow1SendHOv)"
       d="M 230.11801,606.06657 C 195.54027,573.69375 184.78567,560.4421 166.05549,530.00629"
       id="path5497" />
    <path
       id="path5479"
       d="m 213.35641,556.07328 c 2.13502,2.46512 -4.58565,11.78325 -15.01104,20.81266 -10.42539,9.02939 -20.60763,14.35079 -22.74266,11.88568"
       style="color:#000000;fill:none;stroke:#04b60b;stroke-width:5;stroke-linecap:butt;stroke-linejoin:round;stroke-miterlimit:4;stroke-opacity:1;stroke-dasharray:none;stroke-dashoffset:2.7;marker:none;visibility:visible;display:inline;overflow:visible;enable-background:accumulate" />
    <path
       id="path5475"
       d="m 233.45482,538.66612 c 4.40822,5.08976 -9.46802,24.32904 -30.99346,42.97214 -21.52544,18.6431 -42.54882,29.63027 -46.95704,24.54051"
       style="color:#000000;fill:none;stroke:#04b60b;stroke-width:5;stroke-linecap:butt;stroke-linejoin:round;stroke-miterlimit:4;stroke-opacity:1;stroke-dasharray:none;stroke-dashoffset:2.7;marker:none;visibility:visible;display:inline;overflow:visible;enable-background:accumulate" />
    <path
       d="m 257.80396,517.57743 c 7.16218,8.2695 -15.38302,39.52821 -50.35611,69.81828 m 0,0 c -34.97309,30.29006 -69.13049,48.14125 -76.29267,39.87176"
       style="color:#000000;fill:none;stroke:#04b60b;stroke-width:5;stroke-linecap:butt;stroke-linejoin:round;stroke-miterlimit:4;stroke-opacity:1;stroke-dasharray:none;stroke-dashoffset:2.7;marker:none;visibility:visible;display:inline;overflow:visible;enable-background:accumulate"
       id="path5477" />
    <path
       id="path5485"
       d="m 300.67132,480.45018 c 12.01061,13.86752 -25.79654,66.28676 -84.44461,117.08164 -58.64808,50.79488 -115.92825,80.73042 -127.938861,66.8629"
       style="color:#000000;fill:none;stroke:#04b60b;stroke-width:5;stroke-linecap:butt;stroke-linejoin:round;stroke-miterlimit:4;stroke-opacity:1;stroke-dasharray:none;stroke-dashoffset:2.7;marker:none;visibility:visible;display:inline;overflow:visible;enable-background:accumulate" />
    <path
       id="path5488"
       d="m 302.84167,494.6863 -21.84423,22.03958 10.93928,-2.48264 3.08591,10.19013 z"
       style="fill:#04b60b;stroke:#04b60b;stroke-width:1;stroke-linecap:butt;stroke-linejoin:miter;stroke-miterlimit:4;stroke-opacity:1;stroke-dasharray:none;fill-opacity:1" />
    <path
       style="fill:#04b60b;stroke:#04b60b;stroke-width:1;stroke-linecap:butt;stroke-linejoin:miter;stroke-miterlimit:4;stroke-opacity:1;stroke-dasharray:none;fill-opacity:1"
       d="m 258.60408,528.15529 -20.57433,17.784 9.72614,-1.43118 2.00886,9.11224 z"
       id="path5490" />
    <path
       id="path5492"
       d="m 233.96068,545.68892 -15.15989,12.30244 7.01103,-0.81012 1.23833,6.58342 z"
       style="fill:#04b60b;stroke:#04b60b;stroke-width:1;stroke-linecap:butt;stroke-linejoin:miter;stroke-miterlimit:4;stroke-opacity:1;stroke-dasharray:none;fill-opacity:1" />
    <path
       style="color:#000000;fill:none;stroke:#04b60b;stroke-width:5;stroke-linecap:butt;stroke-linejoin:round;stroke-miterlimit:4;stroke-opacity:1;stroke-dasharray:none;stroke-dashoffset:2.7;marker:none;visibility:visible;display:inline;overflow:visible;enable-background:accumulate"
       d="m 167.64849,457.04735 c 0.49069,3.22402 -10.16483,7.51992 -23.79979,9.59519 -13.63496,2.07525 -25.08607,1.14397 -25.57678,-2.08005"
       id="path5524" />
    <path
       style="color:#000000;fill:none;stroke:#04b60b;stroke-width:5;stroke-linecap:butt;stroke-linejoin:round;stroke-miterlimit:4;stroke-opacity:1;stroke-dasharray:none;stroke-dashoffset:2.7;marker:none;visibility:visible;display:inline;overflow:visible;enable-background:accumulate"
       d="m 193.93441,453.04661 c 1.01315,6.6567 -20.98744,15.52652 -49.13971,19.81131 -28.15227,4.28479 -51.795522,2.362 -52.808673,-4.29469"
       id="path5526" />
    <path
       id="path5528"
       style="color:#000000;fill:none;stroke:#04b60b;stroke-width:5;stroke-linecap:butt;stroke-linejoin:round;stroke-miterlimit:4;stroke-opacity:1;stroke-dasharray:none;stroke-dashoffset:2.7;marker:none;visibility:visible;display:inline;overflow:visible;enable-background:accumulate"
       d="m 225.77968,448.19975 c 1.6461,10.81535 -34.09901,25.22646 -79.83893,32.18811 m 0,0 c -45.73992,6.96164 -84.153895,3.83758 -85.800001,-6.97776" />
    <path
       style="color:#000000;fill:none;stroke:#04b60b;stroke-width:5;stroke-linecap:butt;stroke-linejoin:round;stroke-miterlimit:4;stroke-opacity:1;stroke-dasharray:none;stroke-dashoffset:2.7;marker:none;visibility:visible;display:inline;overflow:visible;enable-background:accumulate"
       d="m 281.8442,439.6667 c 2.76043,18.13678 -57.18228,42.30346 -133.88578,53.97778 C 71.254919,505.3188 6.836687,500.07994 4.0762542,481.94316"
       id="path5530" />
    <path
       style="fill:#04b60b;stroke:#04b60b;stroke-width:1;stroke-linecap:butt;stroke-linejoin:miter;stroke-miterlimit:4;stroke-opacity:1;stroke-dasharray:none;fill-opacity:1"
       d="m 276.08505,452.86555 -30.2339,6.98748 10.57697,3.73619 -2.82627,10.26517 z"
       id="path5532" />
    <path
       id="path5534"
       d="m 222.8301,456.33369 -26.82294,4.48376 9.05079,3.83785 -3.02512,8.82706 z"
       style="fill:#04b60b;stroke:#04b60b;stroke-width:1;stroke-linecap:butt;stroke-linejoin:miter;stroke-miterlimit:4;stroke-opacity:1;stroke-dasharray:none;fill-opacity:1" />
    <path
       style="fill:#04b60b;stroke:#04b60b;stroke-width:1;stroke-linecap:butt;stroke-linejoin:miter;stroke-miterlimit:4;stroke-opacity:1;stroke-dasharray:none;fill-opacity:1"
       d="m 192.50291,458.68212 -19.35335,2.57303 6.40186,2.97103 -2.38252,6.26086 z"
       id="path5536" />
    <path
       id="path5905"
       d="m 142.81382,401.8571 c 5.74758,-41.31205 19.58438,-67.41125 34.83412,-92.56127"
       style="fill:none;fill-opacity:1;stroke:#ff0000;stroke-width:10;stroke-linecap:butt;stroke-linejoin:miter;stroke-miterlimit:4;stroke-opacity:1;stroke-dasharray:none;marker-end:url(#Arrow1SendH6C)" />
    <path
       id="path5589"
       d="m 183.64388,348.89754 c -1.33659,2.97466 -12.61852,0.80375 -25.19894,-4.84886 -12.5804,-5.65262 -21.69532,-12.64644 -20.35875,-15.62111"
       style="color:#000000;fill:none;stroke:#04b60b;stroke-width:5;stroke-linecap:butt;stroke-linejoin:round;stroke-miterlimit:4;stroke-opacity:1;stroke-dasharray:none;stroke-dashoffset:2.7;marker:none;visibility:visible;display:inline;overflow:visible;enable-background:accumulate" />
    <path
       id="path5591"
       d="m 207.8968,359.79484 c -2.75966,6.14186 -26.05362,1.65957 -52.02854,-10.01148 -25.97492,-11.67104 -44.79463,-26.11124 -42.03497,-32.25308"
       style="color:#000000;fill:none;stroke:#04b60b;stroke-width:5;stroke-linecap:butt;stroke-linejoin:round;stroke-miterlimit:4;stroke-opacity:1;stroke-dasharray:none;stroke-dashoffset:2.7;marker:none;visibility:visible;display:inline;overflow:visible;enable-background:accumulate" />
    <path
       d="m 237.27909,372.99689 c -4.4837,9.97887 -42.33021,2.69635 -84.53252,-16.26597 m 0,0 C 110.54426,337.76859 79.967287,314.30709 84.450982,304.32823"
       style="color:#000000;fill:none;stroke:#04b60b;stroke-width:5;stroke-linecap:butt;stroke-linejoin:round;stroke-miterlimit:4;stroke-opacity:1;stroke-dasharray:none;stroke-dashoffset:2.7;marker:none;visibility:visible;display:inline;overflow:visible;enable-background:accumulate"
       id="path5593" />
    <path
       id="path5595"
       d="M 289.00748,396.23948 C 281.48854,412.97353 218.02191,400.76109 147.2508,368.96225 76.479689,337.1634 25.203681,297.81972 32.722614,281.08567"
       style="color:#000000;fill:none;stroke:#04b60b;stroke-width:5;stroke-linecap:butt;stroke-linejoin:round;stroke-miterlimit:4;stroke-opacity:1;stroke-dasharray:none;stroke-dashoffset:2.7;marker:none;visibility:visible;display:inline;overflow:visible;enable-background:accumulate" />
    <path
       id="path5597"
       d="m 277.00974,404.20388 -29.18973,-10.52966 6.85908,8.87606 -7.9425,7.09071 z"
       style="fill:#04b60b;stroke:#04b60b;stroke-width:1;stroke-linecap:butt;stroke-linejoin:miter;stroke-miterlimit:4;stroke-opacity:1;stroke-dasharray:none;fill-opacity:1" />
    <path
       style="fill:#04b60b;stroke:#04b60b;stroke-width:1;stroke-linecap:butt;stroke-linejoin:miter;stroke-miterlimit:4;stroke-opacity:1;stroke-dasharray:none;fill-opacity:1"
       d="m 230.38904,378.23027 -24.96608,-10.78282 5.5218,8.13361 -7.32949,5.77469 z"
       id="path5599" />
    <path
       id="path5601"
       d="m 203.63732,363.75274 -17.65444,-8.33627 3.76662,5.96853 -5.39765,3.96739 z"
       style="fill:#04b60b;stroke:#04b60b;stroke-width:1;stroke-linecap:butt;stroke-linejoin:miter;stroke-miterlimit:4;stroke-opacity:1;stroke-dasharray:none;fill-opacity:1" />
    <path
       style="color:#000000;fill:none;stroke:#04b60b;stroke-width:5;stroke-linecap:round;stroke-linejoin:round;stroke-miterlimit:4;stroke-opacity:1;stroke-dasharray:none;stroke-dashoffset:2.70000000000000020;marker:none;visibility:visible;display:inline;overflow:visible;enable-background:accumulate"
       d="m 256.1121,267.63859 c -2.71714,1.80339 -11.10263,-6.05018 -18.72954,-17.54144 -7.6269,-11.49127 -11.60702,-22.26873 -8.88989,-24.07214"
       id="path5613" />
    <path
       style="color:#000000;fill:none;stroke:#04b60b;stroke-width:5;stroke-linecap:round;stroke-linejoin:round;stroke-miterlimit:4;stroke-opacity:1;stroke-dasharray:none;stroke-dashoffset:2.70000000000000020;marker:none;visibility:visible;display:inline;overflow:visible;enable-background:accumulate"
       d="m 270.81548,289.79183 c -5.61013,3.72351 -22.92377,-12.49184 -38.67111,-36.21801 -15.74734,-23.72617 -23.96519,-45.97852 -18.35507,-49.70203"
       id="path5615" />
    <path
       id="path5617"
       style="color:#000000;fill:none;stroke:#04b60b;stroke-width:5;stroke-linecap:round;stroke-linejoin:round;stroke-miterlimit:4;stroke-opacity:1;stroke-dasharray:none;stroke-dashoffset:2.70000000000000020;marker:none;visibility:visible;display:inline;overflow:visible;enable-background:accumulate"
       d="m 288.62854,316.63039 c -9.11496,6.0497 -37.24503,-20.29593 -62.83026,-58.84461 m 0,0 c -25.58522,-38.54868 -38.937,-74.70284 -29.82205,-80.75255" />
    <path
       style="color:#000000;fill:none;stroke:#04b60b;stroke-width:5;stroke-linecap:round;stroke-linejoin:round;stroke-miterlimit:4;stroke-opacity:1;stroke-dasharray:none;stroke-dashoffset:2.70000000000000020;marker:none;visibility:visible;display:inline;overflow:visible;enable-background:accumulate"
       d="M 319.98896,363.88044 C 304.70365,374.02548 257.53098,329.84522 214.62587,265.20105 171.72076,200.55688 149.3305,139.92826 164.61581,129.78321"
       id="path5619" />
    <path
       style="fill:#04b60b;stroke:#04b60b;stroke-width:1;stroke-linecap:butt;stroke-linejoin:miter;stroke-miterlimit:4;stroke-opacity:1;stroke-dasharray:none;fill-opacity:1"
       d="m 305.59233,364.21851 -19.07549,-24.47528 1.06804,11.1665 -10.50035,1.76187 z"
       id="path5621" />
    <path
       id="path5623"
       d="m 280.00907,317.38248 -15.3677,-22.43676 0.33281,9.82523 -9.2799,0.97561 z"
       style="fill:#04b60b;stroke:#04b60b;stroke-width:1;stroke-linecap:butt;stroke-linejoin:miter;stroke-miterlimit:4;stroke-opacity:1;stroke-dasharray:none;fill-opacity:1" />
    <path
       style="fill:#04b60b;stroke:#04b60b;stroke-width:1;stroke-linecap:butt;stroke-linejoin:miter;stroke-miterlimit:4;stroke-opacity:1;stroke-dasharray:none;fill-opacity:1"
       d="m 265.10146,290.86801 -10.48767,-16.46759 0.003,7.05768 -6.68185,0.47718 z"
       id="path5625" />
    <path
       id="path5493"
       d="m 299.37253,224.69583 c 40.95795,-9.86882 59.63135,-9.44683 99.38146,-3.53497"
       style="fill:none;stroke:#ff0000;stroke-width:10;stroke-linecap:butt;stroke-linejoin:miter;stroke-miterlimit:4;stroke-opacity:1;stroke-dasharray:none;marker-end:url(#Arrow1SendHOv)" />
    <path
       id="path5637"
       d="m 359.95688,241.80422 c -3.26113,0.0122 -5.94652,-11.15849 -5.99801,-24.95038 -0.0515,-13.79189 2.55047,-24.98229 5.8116,-24.99447"
       style="color:#000000;fill:none;stroke:#04b60b;stroke-width:5;stroke-linecap:round;stroke-linejoin:round;stroke-miterlimit:4;stroke-opacity:1;stroke-dasharray:none;stroke-dashoffset:2.70000000000000020;marker:none;visibility:visible;display:inline;overflow:visible;enable-background:accumulate" />
    <path
       id="path5639"
       d="m 360.05612,268.39267 c -6.73331,0.0251 -12.27789,-23.03907 -12.38417,-51.51535 -0.10628,-28.47628 5.26597,-51.58124 11.99927,-51.60637"
       style="color:#000000;fill:none;stroke:#04b60b;stroke-width:5;stroke-linecap:round;stroke-linejoin:round;stroke-miterlimit:4;stroke-opacity:1;stroke-dasharray:none;stroke-dashoffset:2.70000000000000020;marker:none;visibility:visible;display:inline;overflow:visible;enable-background:accumulate" />
    <path
       d="m 360.17634,300.60445 c -10.93983,0.0408 -19.9483,-37.43237 -20.12099,-83.69871 m 0,0 c -0.17268,-46.26635 8.55583,-83.80575 19.49565,-83.84658"
       style="color:#000000;fill:none;stroke:#04b60b;stroke-width:5;stroke-linecap:round;stroke-linejoin:round;stroke-miterlimit:4;stroke-opacity:1;stroke-dasharray:none;stroke-dashoffset:2.70000000000000020;marker:none;visibility:visible;display:inline;overflow:visible;enable-background:accumulate"
       id="path5641" />
    <path
       id="path5643"
       d="m 360.38799,357.31423 c -18.34552,0.0685 -33.45226,-62.77215 -33.74184,-140.35844 -0.28957,-77.5863 14.34766,-140.537911 32.69318,-140.606386"
       style="color:#000000;fill:none;stroke:#04b60b;stroke-width:5;stroke-linecap:round;stroke-linejoin:round;stroke-miterlimit:4;stroke-opacity:1;stroke-dasharray:none;stroke-dashoffset:2.70000000000000020;marker:none;visibility:visible;display:inline;overflow:visible;enable-background:accumulate" />
    <path
       id="path5645"
       d="m 348.1774,349.68016 -2.47416,-30.93205 -5.24818,9.91403 -9.73917,-4.30235 z"
       style="fill:#04b60b;stroke:#04b60b;stroke-width:1;stroke-linecap:butt;stroke-linejoin:miter;stroke-miterlimit:4;stroke-opacity:1;stroke-dasharray:none;fill-opacity:1" />
    <path
       style="fill:#04b60b;stroke:#04b60b;stroke-width:1;stroke-linecap:butt;stroke-linejoin:miter;stroke-miterlimit:4;stroke-opacity:1;stroke-dasharray:none;fill-opacity:1"
       d="m 352.56342,296.49294 -0.49821,-27.19055 -5.12473,8.38946 -8.28744,-4.28797 z"
       id="path5647" />
    <path
       id="path5649"
       d="m 354.69176,266.14951 0.29546,-19.52141 -3.8785,5.89645 -5.84335,-3.27567 z"
       style="fill:#04b60b;stroke:#04b60b;stroke-width:1;stroke-linecap:butt;stroke-linejoin:miter;stroke-miterlimit:4;stroke-opacity:1;stroke-dasharray:none;fill-opacity:1" />
    <path
       id="path5665"
       style="color:#000000;fill:none;stroke:#04b60b;stroke-width:5;stroke-linecap:butt;stroke-linejoin:round;stroke-miterlimit:4;stroke-opacity:1;stroke-dasharray:none;stroke-dashoffset:2.7;marker:none;visibility:visible;display:inline;overflow:visible;enable-background:accumulate"
       d="m 431.73692,318.93432 c -9.24419,-5.85033 3.31927,-42.28592 28.06127,-81.38117 m 0,0 c 24.74201,-39.09524 52.29328,-66.04557 61.53747,-60.19525" />
    <path
       style="color:#000000;fill:none;stroke:#04b60b;stroke-width:5;stroke-linecap:butt;stroke-linejoin:round;stroke-miterlimit:4;stroke-opacity:1;stroke-dasharray:none;stroke-dashoffset:2.7;marker:none;visibility:visible;display:inline;overflow:visible;enable-background:accumulate"
       d="m 401.41005,366.8543 c -15.50203,-9.8107 5.56624,-70.91131 47.05732,-136.47202 41.49107,-65.56072 87.6931,-110.75504 103.19514,-100.94435"
       id="path5667" />
    <path
       style="fill:#04b60b;stroke:#04b60b;stroke-width:1;stroke-linecap:butt;stroke-linejoin:miter;stroke-miterlimit:4;stroke-opacity:1;stroke-dasharray:none;fill-opacity:1"
       d="m 395.22308,353.85049 14.55325,-27.4065 -9.75715,5.53439 -5.89576,-8.86575 z"
       id="path5669" />
    <path
       id="path5671"
       d="m 427.53093,311.3732 14.20634,-23.18953 -8.83299,4.31559 -4.6797,-8.07272 z"
       style="fill:#04b60b;stroke:#04b60b;stroke-width:1;stroke-linecap:butt;stroke-linejoin:miter;stroke-miterlimit:4;stroke-opacity:1;stroke-dasharray:none;fill-opacity:1" />
    <path
       style="fill:none;stroke:#04b60b;stroke-width:5;stroke-linecap:butt;stroke-linejoin:miter;stroke-miterlimit:4;stroke-opacity:1;stroke-dasharray:none"
       d="m 445.64743,286.93868 10.75002,-16.29754 -6.44137,2.88436 -3.16388,-5.90463 z"
       id="path5673" />
    <path
       style="fill:#ff0000;fill-opacity:1;stroke:#ff0000;stroke-width:10;stroke-linecap:butt;stroke-linejoin:miter;stroke-miterlimit:4;stroke-opacity:1;stroke-dasharray:none;marker-end:url(#Arrow1SendHjW)"
       d="m 408.85196,652.24933 c -42.27554,20.75036 -103.67556,30.97994 -147.56302,37.9616"
       id="path7052" />
    <path
       id="path7050"
       d="m 650.08154,694.20917 -77.05605,0"
       style="fill:none;stroke:#ff0000;stroke-width:10;stroke-linecap:butt;stroke-linejoin:miter;stroke-miterlimit:4;stroke-opacity:1;stroke-dasharray:none;marker-end:url(#Arrow1SendH0h)" />
    <path
       style="fill:#ff0000;fill-opacity:1;stroke:#ff0000;stroke-width:10;stroke-linecap:butt;stroke-linejoin:miter;stroke-miterlimit:4;stroke-opacity:1;stroke-dasharray:none;marker-end:url(#Arrow1SendHlC)"
       d="m 152.17364,695.21932 -77.056051,0"
       id="path7058" />
    <text
       xml:space="preserve"
       style="font-size:96px;font-style:italic;font-variant:normal;font-weight:normal;font-stretch:normal;text-align:start;line-height:125%;letter-spacing:0px;word-spacing:0px;writing-mode:lr-tb;text-anchor:start;fill:#ff0000;fill-opacity:1;stroke:#ff0000;stroke-width:5;stroke-miterlimit:4;stroke-opacity:1;stroke-dasharray:none;font-family:Times New Roman;-inkscape-font-specification:'Times New Roman, Italic'"
       x="655.88763"
       y="725.14752"
       id="text7060"><tspan
         id="tspan7062"
         x="655.88763"
         y="725.14752">I</tspan></text>
    <path
       style="fill:none;fill-opacity:1;stroke:#ff0000;stroke-width:10;stroke-linecap:butt;stroke-linejoin:miter;stroke-miterlimit:4;stroke-opacity:1;stroke-dasharray:none;marker-end:url(#Arrow1SendHOv)"
       d="m 537.88213,304.88097 c 22.9537,35.3281 28.77862,53.07477 36.45115,92.52289"
       id="path7048" />
    <path
       id="path5687"
       d="m 509.99761,360.74897 c -2.82051,-6.11415 15.85484,-20.74052 41.71258,-32.66893 25.85775,-11.92841 49.10606,-16.64182 51.92657,-10.52768"
       style="color:#000000;fill:none;stroke:#04b60b;stroke-width:5;stroke-linecap:butt;stroke-linejoin:round;stroke-miterlimit:4;stroke-opacity:1;stroke-dasharray:none;stroke-dashoffset:2.7;marker:none;visibility:visible;display:inline;overflow:visible;enable-background:accumulate" />
    <path
       d="m 480.74786,374.24214 c -4.58257,-9.93386 25.75991,-33.69783 67.77183,-53.07832 m 0,0 c 42.01192,-19.38048 79.78425,-27.03848 84.36682,-17.10464"
       style="color:#000000;fill:none;stroke:#04b60b;stroke-width:5;stroke-linecap:butt;stroke-linejoin:round;stroke-miterlimit:4;stroke-opacity:1;stroke-dasharray:none;stroke-dashoffset:2.7;marker:none;visibility:visible;display:inline;overflow:visible;enable-background:accumulate"
       id="path5689" />
    <path
       id="path5691"
       d="m 429.25283,397.99726 c -7.68474,-16.65856 43.19805,-56.50951 113.64989,-89.00959 70.45184,-32.50008 133.79404,-45.34217 141.47879,-28.68361"
       style="color:#000000;fill:none;stroke:#04b60b;stroke-width:5;stroke-linecap:butt;stroke-linejoin:round;stroke-miterlimit:4;stroke-opacity:1;stroke-dasharray:none;stroke-dashoffset:2.7;marker:none;visibility:visible;display:inline;overflow:visible;enable-background:accumulate" />
    <path
       id="path5693"
       d="m 431.12331,383.71865 27.10767,-15.10259 -11.19835,-0.6545 -0.13317,-10.6463 z"
       style="fill:#04b60b;stroke:#04b60b;stroke-width:1;stroke-linecap:butt;stroke-linejoin:miter;stroke-miterlimit:4;stroke-opacity:1;stroke-dasharray:none;fill-opacity:1" />
    <path
       style="fill:#04b60b;stroke:#04b60b;stroke-width:1;stroke-linecap:butt;stroke-linejoin:miter;stroke-miterlimit:4;stroke-opacity:1;stroke-dasharray:none;fill-opacity:1"
       d="m 481.32455,365.60915 24.5254,-11.75069 -9.76031,-1.17566 0.45692,-9.31985 z"
       id="path5695" />
    <path
       id="path5697"
       d="m 509.80911,354.93755 17.87935,-7.84229 -6.97487,-1.07792 0.55165,-6.67611 z"
       style="fill:#04b60b;stroke:#04b60b;stroke-width:1;stroke-linecap:butt;stroke-linejoin:miter;stroke-miterlimit:4;stroke-opacity:1;stroke-dasharray:none;fill-opacity:1" />
    <path
       style="color:#000000;fill:none;stroke:#04b60b;stroke-width:5;stroke-linecap:butt;stroke-linejoin:round;stroke-miterlimit:4;stroke-opacity:1;stroke-dasharray:none;stroke-dashoffset:2.7;marker:none;visibility:visible;display:inline;overflow:visible;enable-background:accumulate"
       d="m 547.77898,455.80997 c 0.46344,-3.22805 11.90625,-4.25608 25.55827,-2.29619 13.65202,1.9599 24.34348,6.16559 23.88007,9.39365"
       id="path5709" />
    <path
       style="color:#000000;fill:none;stroke:#04b60b;stroke-width:5;stroke-linecap:butt;stroke-linejoin:round;stroke-miterlimit:4;stroke-opacity:1;stroke-dasharray:none;stroke-dashoffset:2.7;marker:none;visibility:visible;display:inline;overflow:visible;enable-background:accumulate"
       d="m 521.46018,452.03161 c 0.95684,-6.66503 24.58298,-8.78764 52.77046,-4.74099 28.18749,4.04664 50.2623,12.73015 49.30546,19.39516"
       id="path5711" />
    <path
       id="path5713"
       style="color:#000000;fill:none;stroke:#04b60b;stroke-width:5;stroke-linecap:butt;stroke-linejoin:round;stroke-miterlimit:4;stroke-opacity:1;stroke-dasharray:none;stroke-dashoffset:2.7;marker:none;visibility:visible;display:inline;overflow:visible;enable-background:accumulate"
       d="m 489.57507,447.45412 c 1.55462,-10.82888 39.94081,-14.27757 85.73795,-7.70286 m 0,0 c 45.79714,6.57472 81.6628,20.68313 80.10819,31.512" />
    <path
       style="color:#000000;fill:none;stroke:#04b60b;stroke-width:5;stroke-linecap:butt;stroke-linejoin:round;stroke-miterlimit:4;stroke-opacity:1;stroke-dasharray:none;stroke-dashoffset:2.7;marker:none;visibility:visible;display:inline;overflow:visible;enable-background:accumulate"
       d="m 433.44042,439.39533 c 2.607,-18.15946 66.97866,-23.94273 143.77812,-12.91727 76.79945,11.02545 136.94431,34.68451 134.33731,52.84398"
       id="path5715" />
    <path
       style="fill:#04b60b;stroke:#04b60b;stroke-width:1;stroke-linecap:butt;stroke-linejoin:miter;stroke-miterlimit:4;stroke-opacity:1;stroke-dasharray:none;fill-opacity:1"
       d="m 442.77319,428.42825 30.96226,2.06212 -9.04292,-6.63755 5.67633,-9.00782 z"
       id="path5717" />
    <path
       id="path5719"
       d="m 494.7526,440.52201 26.97264,3.47144 -7.55264,-6.29314 5.45044,-7.5737 z"
       style="fill:#04b60b;stroke:#04b60b;stroke-width:1;stroke-linecap:butt;stroke-linejoin:miter;stroke-miterlimit:4;stroke-opacity:1;stroke-dasharray:none;fill-opacity:1" />
    <path
       style="fill:#04b60b;stroke:#04b60b;stroke-width:1;stroke-linecap:butt;stroke-linejoin:miter;stroke-miterlimit:4;stroke-opacity:1;stroke-dasharray:none;fill-opacity:1"
       d="m 524.46148,447.05162 19.26973,3.13849 -5.26796,-4.69675 4.09262,-5.30333 z"
       id="path5721" />
    <path
       id="path5495"
       d="m 550.72435,528.2583 c -19.64331,34.69235 -32.29407,48.83539 -62.98805,76.95244"
       style="fill:none;stroke:#ff0000;stroke-width:10;stroke-linecap:butt;stroke-linejoin:miter;stroke-miterlimit:4;stroke-opacity:1;stroke-dasharray:none;marker-end:url(#Arrow1SendHOv)" />
    <path
       id="path5733"
       d="m 504.90483,552.93121 c 2.11684,-2.48074 12.33793,2.76561 22.82948,11.71806 10.49153,8.95246 17.28056,18.22092 15.16373,20.70167"
       style="color:#000000;fill:none;stroke:#04b60b;stroke-width:5;stroke-linecap:butt;stroke-linejoin:round;stroke-miterlimit:4;stroke-opacity:1;stroke-dasharray:none;stroke-dashoffset:2.7;marker:none;visibility:visible;display:inline;overflow:visible;enable-background:accumulate" />
    <path
       id="path5735"
       d="m 484.67891,535.67238 c 4.37066,-5.12205 25.47429,5.71015 47.13629,24.1944 21.662,18.48425 35.67941,37.62094 31.30875,42.74298"
       style="color:#000000;fill:none;stroke:#04b60b;stroke-width:5;stroke-linecap:butt;stroke-linejoin:round;stroke-miterlimit:4;stroke-opacity:1;stroke-dasharray:none;stroke-dashoffset:2.7;marker:none;visibility:visible;display:inline;overflow:visible;enable-background:accumulate" />
    <path
       d="m 460.17531,514.76336 c 7.10115,-8.32196 41.38895,9.27749 76.58391,39.30945 m 0,0 c 35.19496,30.03198 57.96949,61.124 50.86835,69.44596"
       style="color:#000000;fill:none;stroke:#04b60b;stroke-width:5;stroke-linecap:butt;stroke-linejoin:round;stroke-miterlimit:4;stroke-opacity:1;stroke-dasharray:none;stroke-dashoffset:2.7;marker:none;visibility:visible;display:inline;overflow:visible;enable-background:accumulate"
       id="path5737" />
    <path
       id="path5739"
       d="m 417.036,477.95245 c 11.90826,-13.9555 69.40712,15.55787 128.42727,65.91994 59.02015,50.36208 97.21186,102.50177 85.3036,116.45727"
       style="color:#000000;fill:none;stroke:#04b60b;stroke-width:5;stroke-linecap:butt;stroke-linejoin:round;stroke-miterlimit:4;stroke-opacity:1;stroke-dasharray:none;stroke-dashoffset:2.7;marker:none;visibility:visible;display:inline;overflow:visible;enable-background:accumulate" />
    <path
       id="path5741"
       d="m 430.78526,473.67048 25.06786,18.28978 -4.09601,-10.4429 9.6117,-4.58004 z"
       style="fill:#04b60b;stroke:#04b60b;stroke-width:1;stroke-linecap:butt;stroke-linejoin:miter;stroke-miterlimit:4;stroke-opacity:1;stroke-dasharray:none;fill-opacity:1" />
    <path
       style="fill:#04b60b;stroke:#04b60b;stroke-width:1;stroke-linecap:butt;stroke-linejoin:miter;stroke-miterlimit:4;stroke-opacity:1;stroke-dasharray:none;fill-opacity:1"
       d="m 468.25611,511.67118 20.94258,17.34884 -3.02045,-9.35536 8.65435,-3.48862 z"
       id="path5743" />
    <path
       id="path5745"
       d="m 489.87708,533.06715 14.60987,12.95083 -1.94255,-6.78508 6.29336,-2.2953 z"
       style="fill:#04b60b;stroke:#04b60b;stroke-width:1;stroke-linecap:butt;stroke-linejoin:miter;stroke-miterlimit:4;stroke-opacity:1;stroke-dasharray:none;fill-opacity:1" />
    <path
       id="path5781"
       d="m 303.98398,622.91149 c 3.13562,0.89608 2.60541,12.37275 -1.18425,25.63387 -3.78966,13.26112 -9.40374,23.28496 -12.53937,22.38889"
       style="color:#000000;fill:none;stroke:#04b60b;stroke-width:5;stroke-linecap:butt;stroke-linejoin:round;stroke-miterlimit:4;stroke-opacity:1;stroke-dasharray:none;stroke-dashoffset:2.7;marker:none;visibility:visible;display:inline;overflow:visible;enable-background:accumulate" />
    <path
       id="path5783"
       d="m 311.28982,597.34628 c 6.47418,1.85015 5.37947,25.54617 -2.44511,52.92655 -7.82458,27.38039 -19.416,48.07676 -25.89018,46.22661"
       style="color:#000000;fill:none;stroke:#04b60b;stroke-width:5;stroke-linecap:butt;stroke-linejoin:round;stroke-miterlimit:4;stroke-opacity:1;stroke-dasharray:none;stroke-dashoffset:2.7;marker:none;visibility:visible;display:inline;overflow:visible;enable-background:accumulate" />
    <path
       d="m 320.14083,566.37414 c 10.51881,3.006 8.7402,41.50574 -3.97264,85.99156 m 0,0 c -12.71285,44.48582 -31.54586,78.11187 -42.06466,75.10588"
       style="color:#000000;fill:none;stroke:#04b60b;stroke-width:5;stroke-linecap:butt;stroke-linejoin:round;stroke-miterlimit:4;stroke-opacity:1;stroke-dasharray:none;stroke-dashoffset:2.7;marker:none;visibility:visible;display:inline;overflow:visible;enable-background:accumulate"
       id="path5785" />
    <path
       id="path5787"
       d="m 335.72327,511.84681 c 17.63951,5.04089 14.65686,69.60296 -6.66193,144.2034 -21.3188,74.60044 -52.90073,130.98959 -70.54024,125.94869"
       style="color:#000000;fill:none;stroke:#04b60b;stroke-width:5;stroke-linecap:butt;stroke-linejoin:round;stroke-miterlimit:4;stroke-opacity:1;stroke-dasharray:none;stroke-dashoffset:2.7;marker:none;visibility:visible;display:inline;overflow:visible;enable-background:accumulate" />
    <path
       id="path5789"
       d="m 345.32624,522.57809 -6.23387,30.39823 7.80043,-8.06132 8.15664,6.84331 z"
       style="fill:#04b60b;stroke:#04b60b;stroke-width:1;stroke-linecap:butt;stroke-linejoin:miter;stroke-miterlimit:4;stroke-opacity:1;stroke-dasharray:none;fill-opacity:1" />
    <path
       style="fill:#04b60b;stroke:#04b60b;stroke-width:1;stroke-linecap:butt;stroke-linejoin:miter;stroke-miterlimit:4;stroke-opacity:1;stroke-dasharray:none;fill-opacity:1"
       d="m 326.30838,572.44229 -7.09025,26.25457 7.25748,-6.63136 6.76629,6.42539 z"
       id="path5791" />
    <path
       id="path5793"
       d="m 315.81776,600.994 -5.71777,18.66762 5.36655,-4.58378 4.70059,4.77275 z"
       style="fill:#04b60b;stroke:#04b60b;stroke-width:1;stroke-linecap:butt;stroke-linejoin:miter;stroke-miterlimit:4;stroke-opacity:1;stroke-dasharray:none;fill-opacity:1" />
    <path
       id="path5761"
       style="color:#000000;fill:none;stroke:#04b60b;stroke-width:5;stroke-linecap:butt;stroke-linejoin:round;stroke-miterlimit:4;stroke-opacity:1;stroke-dasharray:none;stroke-dashoffset:2.7;marker:none;visibility:visible;display:inline;overflow:visible;enable-background:accumulate"
       d="m 400.86135,565.15936 c 10.47958,-3.14004 29.74033,30.24283 43.0201,74.56272 m 0,0 c 13.27975,44.3199 15.54973,82.79379 5.07016,85.93383" />
    <path
       style="color:#000000;fill:none;stroke:#04b60b;stroke-width:5;stroke-linecap:butt;stroke-linejoin:round;stroke-miterlimit:4;stroke-opacity:1;stroke-dasharray:none;stroke-dashoffset:2.7;marker:none;visibility:visible;display:inline;overflow:visible;enable-background:accumulate"
       d="m 384.58403,510.8354 c 17.57371,-5.26569 49.873,50.71567 72.14248,125.03786 22.26947,74.32219 26.07613,138.84089 8.50242,144.10658"
       id="path5763" />
    <path
       style="fill:#04b60b;stroke:#04b60b;stroke-width:1;stroke-linecap:butt;stroke-linejoin:miter;stroke-miterlimit:4;stroke-opacity:1;stroke-dasharray:none;fill-opacity:1"
       d="m 398.4577,514.69529 11.14036,28.96214 2.22281,-10.99502 10.55923,1.36534 z"
       id="path5765" />
    <path
       id="path5767"
       d="m 409.32744,566.94437 8.18491,25.93417 2.53657,-9.49798 9.16297,1.76303 z"
       style="fill:#04b60b;stroke:#04b60b;stroke-width:1;stroke-linecap:butt;stroke-linejoin:miter;stroke-miterlimit:4;stroke-opacity:1;stroke-dasharray:none;fill-opacity:1" />
    <path
       style="color:#000000;fill:none;stroke:#04b60b;stroke-width:5;stroke-linecap:butt;stroke-linejoin:round;stroke-miterlimit:4;stroke-opacity:1;stroke-dasharray:none;stroke-dashoffset:2.7;marker:none;visibility:visible;display:inline;overflow:visible;enable-background:accumulate"
       d="m 417.73868,621.48582 c 3.12393,-0.93602 8.8655,9.01532 12.82418,22.22697 3.95867,13.21166 4.63534,24.68063 1.51141,25.61668"
       id="path5757" />
    <path
       style="color:#000000;fill:none;stroke:#04b60b;stroke-width:5;stroke-linecap:butt;stroke-linejoin:round;stroke-miterlimit:4;stroke-opacity:1;stroke-dasharray:none;stroke-dashoffset:2.7;marker:none;visibility:visible;display:inline;overflow:visible;enable-background:accumulate"
       d="m 410.10703,596.01597 c 6.45004,-1.93265 18.30475,18.61402 26.47825,45.89228 8.1735,27.27827 9.57066,50.95839 3.12063,52.89104"
       id="path5759" />
    <path
       style="fill:#04b60b;stroke:#04b60b;stroke-width:1;stroke-linecap:butt;stroke-linejoin:miter;stroke-miterlimit:4;stroke-opacity:1;stroke-dasharray:none;fill-opacity:1"
       d="m 415.88721,596.64661 5.24998,18.80453 2.04809,-6.75398 6.53219,1.48503 z"
       id="path5769" />
    <path
       style="color:#000000;fill:none;stroke:#04b60b;stroke-width:5;stroke-linecap:butt;stroke-linejoin:round;stroke-miterlimit:4;stroke-opacity:1;stroke-dasharray:none;stroke-dashoffset:2.7;marker:none;visibility:visible;display:inline;overflow:visible;enable-background:accumulate"
       d="m 448.96293,291.71525 c -5.68967,-3.6008 2.04295,-26.02637 17.27131,-50.08893 15.22835,-24.06257 32.18575,-40.65013 37.87542,-37.04934"
       id="path5663" />
    <path
       style="color:#000000;fill:#04b60b;stroke:#04b60b;stroke-width:1;stroke-linecap:butt;stroke-linejoin:round;stroke-miterlimit:4;stroke-opacity:1;stroke-dasharray:none;stroke-dashoffset:2.70000000000000020;marker:none;visibility:visible;display:inline;overflow:visible;enable-background:accumulate;fill-opacity:1"
       d="m 463.18172,269.2479 c -2.75566,-1.74397 0.98948,-12.60531 8.365,-24.25952 7.37553,-11.6542 15.5885,-19.68802 18.34417,-17.94407"
       id="path5661" />
    <path
       id="path5685"
       d="m 534.14111,349.61135 c -1.36604,-2.96126 7.67897,-10.04522 20.20262,-15.82252 12.52365,-5.77727 23.78349,-8.0601 25.14955,-5.09885"
       style="color:#000000;fill:none;stroke:#04b60b;stroke-width:5;stroke-linecap:butt;stroke-linejoin:round;stroke-miterlimit:4;stroke-opacity:1;stroke-dasharray:none;stroke-dashoffset:2.7;marker:none;visibility:visible;display:inline;overflow:visible;enable-background:accumulate" />
    <text
       id="text3971"
       y="196.15764"
       x="72.265396"
       style="font-size:96px;font-style:italic;font-variant:normal;font-weight:normal;font-stretch:normal;text-align:start;line-height:125%;letter-spacing:0px;word-spacing:0px;writing-mode:lr-tb;text-anchor:start;fill:#04b60b;fill-opacity:0.96862745;stroke:#04b60b;stroke-width:5;stroke-miterlimit:4;stroke-opacity:0.96862745;stroke-dasharray:none;font-family:Serif;-inkscape-font-specification:Serif Italic"
       xml:space="preserve"><tspan
         y="196.15764"
         x="72.265396"
         id="tspan3973">B</tspan></text>
    <rect
       y="676.93146"
       x="159.87299"
       height="37.880722"
       width="14.647212"
       id="rect3929"
       style="color:#000000;fill:#ffffff;fill-opacity:1;fill-rule:nonzero;stroke:#ff0000;stroke-width:0;stroke-linecap:round;stroke-linejoin:round;stroke-miterlimit:4;stroke-opacity:1;stroke-dasharray:none;stroke-dashoffset:0;marker:none;visibility:visible;display:inline;overflow:visible;enable-background:accumulate" />
    <rect
       style="color:#000000;fill:#ffffff;fill-opacity:1;fill-rule:nonzero;stroke:#ff0000;stroke-width:0;stroke-linecap:round;stroke-linejoin:round;stroke-miterlimit:4;stroke-opacity:1;stroke-dasharray:none;stroke-dashoffset:0;marker:none;visibility:visible;display:inline;overflow:visible;enable-background:accumulate"
       id="rect3931"
       width="11.111678"
       height="37.880722"
       x="542.72076"
       y="671.88068" />
  </g>
</svg>
